Place,Name,Sex,BirthYear,Age,Country,State,Equipment,Division,BodyweightKg,WeightClassKg,Squat1Kg,Squat2Kg,Squat3Kg,Best3SquatKg,Bench1Kg,Bench2Kg,Bench3Kg,Best3BenchKg,Deadlift1Kg,Deadlift2Kg,Deadlift3Kg,Best3DeadliftKg,TotalKg,Event,BirthDate
1,Valeria Sedano,F,2001,21,,,Raw,Juniors,39.5,43,-60,60,62.5,62.5,25,-27.5,,25,87.5,90,92.5,92.5,180,SBD,
1,Maria Gabriela Rojas Solis,F,2002,20,,,Raw,Juniors,56.7,57,117.5,122.5,130,130,60,-65,-65,60,130,-140,140,140,330,SBD,
1,Jenmy Espinal,F,1977,45,,,Raw,Masters 1,55.49,57,87.5,90,92.5,92.5,47.5,50,-52.5,50,112.5,117.5,122.5,122.5,265,SBD,
2,Nimisha Mitha,F,1979,43,,,Raw,Masters 1,55.84,57,57.5,-65,-67.5,57.5,40,45,-50,45,85,90,-95,90,192.5,SBD,
1,Alida Sharp,F,1963,59,,,Raw,Masters 2,52,52,-85,85,87.5,87.5,57.5,60,-62.5,60,115,122.5,-125,122.5,270,SBD,
1,Lynne Homan,F,1962,60,,,Raw,Masters 3,56.02,57,77.5,82.5,85,85,57.5,60,-62.5,60,110,115,122.5,122.5,267.5,SBD,
2,Ana Garcia,F,1955,67,,,Raw,Masters 3,54.62,57,45,-50,50,50,30,-35,35,35,70,77.5,82.5,82.5,167.5,SBD,
DQ,Sara Diaz,F,1958,64,,,Raw,Masters 3,56.52,57,-40,-40,-40,,25,27.5,-30,27.5,70,72.5,75,75,,SBD,
1,Carla Cohen,F,1946,76,,,Raw,Masters 4,48.3,52,-25,30,-35,30,-25,27.5,-30,27.5,50,57.5,65,65,122.5,SBD,
1,Cindy Vanh,F,1995,27,,,Raw,Open,46.6,47,90,97.5,100,100,52.5,57.5,60,60,117.5,125,130,130,290,SBD,
2,Maria Palacio,F,1986,36,,,Raw,Open,45.7,47,82.5,87.5,90,90,42.5,47.5,50,50,90,95,97.5,97.5,237.5,SBD,
3,Erendira Sedano,F,1991,31,,,Raw,Open,41.88,47,60,62.5,65,65,37.5,-40,,37.5,100,105,-107.5,105,207.5,SBD,
4,Jose Borbon Maria,F,1994,28,,,Raw,Open,44.88,47,75,-77.5,-82.5,75,40,45,-47.5,45,80,-85,-85,80,200,SBD,
1,Agata Przybylska,F,1997,25,,,Raw,Open,51.94,52,125,132.5,-135,132.5,72.5,77.5,80,80,162.5,172.5,177.5,177.5,390,SBD,
2,Aurora Arias,F,1997,25,,,Raw,Open,51.4,52,137.5,145,152,152,72.5,77.5,80,80,147.5,155,-162.5,155,387,SBD,
3,Yusdara Mitre,F,1987,35,,,Raw,Open,50.88,52,-90,100,-105,100,50,55,-57.5,55,97.5,105,107.5,107.5,262.5,SBD,
1,Emma Zilberman-Vegas,F,1992,30,,,Raw,Open,57,57,137.5,-142.5,143.5,143.5,77.5,82.5,-85,82.5,162.5,167.5,175,175,401,SBD,
2,Adriana Moreno Mena,F,1976,46,,,Raw,Open,55.88,57,125,135,-143.5,135,67.5,70,-72.5,70,135,145,-150,145,350,SBD,
3,Edith Ruiz,F,1993,29,,,Raw,Open,55.56,57,112.5,120,125,125,57.5,-60,60,60,117.5,122.5,-125,122.5,307.5,SBD,
DQ,Carolina González,F,1997,25,,,Raw,Open,56.68,57,-140,-142.5,-142.5,,-65,,,,,,,,,SBD,
1,Joyce de Jesus,F,1998,24,,,Raw,Special Olympics,55.86,57,30,32.5,37.5,37.5,-25,25,27.5,27.5,-37.5,37.5,45,45,110,SBD,
1,Carolina Martinez Lopez Jeimy,F,2007,15,,,Raw,Sub-Juniors,45.5,47,80,85,87.5,87.5,40,45,-52.5,45,100,105,110,110,242.5,SBD,
1,Madison Hamilton,F,2005,17,,,Raw,Sub-Juniors,55.88,57,95,102.5,-107.5,102.5,55,-60,-60,55,-105,105,107.5,107.5,265,SBD,
1,Yash Pednekar,M,1999,23,,,Raw,Juniors,55.3,59,135,145,147.5,147.5,80,85,-90,85,195,220,-230,220,452.5,SBD,
1,Joshua Frias,M,1999,23,,,Raw,Juniors,65.22,66,160,167.5,175,175,95,100,105,105,215,233,-240,233,513,SBD,
2,Marco Estrada,M,2000,22,,,Raw,Juniors,65.04,66,130,140,145,145,60,65,75,75,175,185,-197.5,185,405,SBD,
3,Luis Alfredo Hernandez,M,2000,22,,,Raw,Juniors,64.08,66,-137.5,137.5,142.5,142.5,77.5,-80,-80,77.5,170,-175,175,175,395,SBD,
1,Jesus Amado,M,2000,22,,,Raw,Juniors,73.86,74,-187.5,200,215,215,137.5,-142.5,-142.5,137.5,237.5,252.5,265.5,265.5,618,SBD,
2,Carlos Pedrogo,M,2003,19,,,Raw,Juniors,72.56,74,207.5,217.5,222.5,222.5,115,-125,125,125,217.5,-230,230,230,577.5,SBD,
3,Leonardo Jimenez,M,2003,19,,,Raw,Juniors,72,74,-162.5,170,175,175,95,100,102.5,102.5,205,215,225,225,502.5,SBD,
4,Luis Aybar,M,2001,21,,,Raw,Juniors,73.62,74,155,160,-165,160,102.5,-107.5,-107.5,102.5,207.5,217.5,-227.5,217.5,480,SBD,
1,Huaiyu Tan,M,1977,45,,,Raw,Masters 1,65.54,66,145,-155,155,155,95,102.5,-107.5,102.5,197.5,207.5,-217.5,207.5,465,SBD,
1,Ivan Guzman Suarez,M,1980,42,,,Raw,Masters 1,72.44,74,182.5,-187.5,-187.5,182.5,95,-100,-100,95,207.5,220,-227.5,220,497.5,SBD,
2,Luis Retana,M,1982,40,,,Raw,Masters 1,73.3,74,135,140,147.5,147.5,82.5,90,-95,90,165,175,-182.5,175,412.5,SBD,
DQ,Lauren Cohen,M,1979,43,,,Raw,Masters 1,73.53,74,-225,-225,-225,,,,,,,,,,,SBD,
1,Brian Mott,M,1970,52,,,Raw,Masters 2,64.02,66,80,90,102.5,102.5,85,90,95,95,115,130,145,145,342.5,SBD,
1,Gary Lacoursiere,M,1967,55,,,Raw,Masters 2,73.18,74,100,,,100,127.5,132.5,-137.5,132.5,100,130,160,160,392.5,SBD,
1,Manuel Rodriguez #1,M,1949,73,,,Raw,Masters 4,64.2,66,137.5,145,150,150,85,92.5,95,95,185,195,200,200,445,SBD,
2,Robert Cohen,M,1947,75,,,Raw,Masters 4,62.86,66,45,55,-65,55,45,52.5,57.5,57.5,-65,65,100,100,212.5,SBD,
1,Luis Guillermo Hernandez,M,1994,28,,,Raw,Open,65.56,66,182.5,192.5,200,200,107.5,115,117.5,117.5,192.5,202.5,210,210,527.5,SBD,
2,Derick Vazquez,M,1990,32,,,Raw,Open,65.1,66,135,142.5,145,145,90,-102.5,-102.5,90,187.5,197.5,-207.5,197.5,432.5,SBD,
1,Alfaro William,M,1979,43,,,Raw,Special Olympics,51.84,59,70,80,-90,80,-70,70,-72.5,70,100,110,-125,110,260,SBD,
1,Luis Fernando Foster,M,1997,25,,,Raw,Special Olympics,61.94,66,75,-85,85,85,55,65,70,70,95,115,125,125,280,SBD,
1,Om Pednekar,M,2004,18,,,Raw,Sub-Juniors,57.62,59,130,140,-147.5,140,72.5,77.5,82.5,82.5,165,177.5,-187.5,177.5,400,SBD,
1,Jesus Chacon Calvo,M,2004,18,,,Raw,Sub-Juniors,64.24,66,140,150,157.5,157.5,72.5,-77.5,-77.5,72.5,145,155,-165,155,385,SBD,
1,Jose Hernandez #39,M,2004,18,,,Raw,Sub-Juniors,73,74,170,180,-185,180,90,100,105,105,190,205,210.5,210.5,495.5,SBD,
2,Dylan Jimenez,M,2004,18,,,Raw,Sub-Juniors,72.08,74,160,170,180,180,110,117.5,125,125,170,190,-202.5,190,495,SBD,
3,Oscar Campos Herrera,M,2004,18,,,Raw,Sub-Juniors,72.36,74,-175,185,192.5,192.5,82.5,90,95,95,170,190,-202.5,190,477.5,SBD,
4,Jose Alejandro Fernández Rodríguez,M,2004,18,,,Raw,Sub-Juniors,72.16,74,-145,150,155,155,80,85,90,90,170,185,-190,185,430,SBD,
1,Krisel Lopez,F,1999,23,,,Raw,Juniors,60.58,63,135,-145,145,145,75,80,-82.5,80,152.5,160,165.5,165.5,390.5,SBD,
2,Lizzy Roberts,F,1999,23,,,Raw,Juniors,62.62,63,120,125,130,130,67.5,72.5,-75,72.5,147.5,155,-165,155,357.5,SBD,
3,Nadje Castillo,F,2003,19,,,Raw,Juniors,60.42,63,80,-100,110,110,30,40,-45,40,80,100,117.5,117.5,267.5,SBD,
1,Mara Tiscareno,F,2000,22,,,Raw,Juniors,67.04,69,150,-155,155,155,75,80,-87.5,80,165,-175,175,175,410,SBD,
2,Valeria Albino,F,2001,21,,,Raw,Juniors,64.4,69,-92.5,92.5,95,95,32.5,37.5,-40,37.5,87.5,92.5,95,95,227.5,SBD,
1,Xuelian Gan,F,1979,43,,,Raw,Masters 1,58.78,63,110,120,125,125,40,45,47.5,47.5,115,120,-125,120,292.5,SBD,
2,Melissa Natal,F,1978,44,,,Raw,Masters 1,58.3,63,-87.5,87.5,90,90,40,45,-50,45,115,125,-127.5,125,260,SBD,
1,Yaritza Rivera,F,1979,43,,,Raw,Masters 1,65.26,69,100,105,-110,105,47.5,52.5,55,55,115,120,122.5,122.5,282.5,SBD,
2,Clair Crawford,F,1979,43,,,Raw,Masters 1,67.04,69,95,102.5,-107.5,102.5,52.5,-55,-55,52.5,125,-130,-130,125,280,SBD,
3,Corina Boekhoudt,F,1981,41,,,Raw,Masters 1,68.6,69,80,90,-100,90,40,-45,45,45,100,110,120,120,255,SBD,
1,Michelle Carlascio,F,1970,52,,,Raw,Masters 2,61.44,63,42.5,55,62.5,62.5,40,50,-52.5,50,90,110,-115,110,222.5,SBD,
1,Ellen Liverpool,F,1993,29,,,Raw,Open,62.66,63,150,160,170.5,170.5,75,77.5,-80,77.5,175,185,197.5,197.5,445.5,SBD,
2,Kayla Casey,F,1987,35,,,Raw,Open,59.6,63,140,147.5,155,155,87.5,92.5,-96,92.5,150,162.5,175,175,422.5,SBD,
3,Jacqueline Alas,F,1997,25,,,Raw,Open,62.92,63,110,117.5,-127.5,117.5,60,65,-67.5,65,155,165,-167.5,165,347.5,SBD,
1,Christine Castro,F,1992,30,,,Raw,Open,68.74,69,172.5,182.5,-187.5,182.5,87.5,92.5,-97.5,92.5,195,207.5,-215,207.5,482.5,SBD,
2,Francis de Jesus Moncada Herrera,F,1998,24,,,Raw,Open,66.42,69,160,167.5,170,170,65,-75,-75,65,170,175,187.5,187.5,422.5,SBD,
3,Ericka Liliana Dávila Cárcamo,F,1996,26,,,Raw,Open,68,69,-150,-150,150,150,90,-95,-95,90,170,175,182.5,182.5,422.5,SBD,
4,Mikaela Law,F,1994,28,,,Raw,Open,68.14,69,155,160,-170,160,85,92.5,-97.5,92.5,155,162.5,-167.5,162.5,415,SBD,
5,Militza Abrego,F,1986,36,,,Raw,Open,67.46,69,100,110,115,115,52.5,55,-57.5,55,120,125,132.5,132.5,302.5,SBD,
6,Ana Gonzalez,F,1993,29,,,Raw,Open,67.34,69,112.5,117.5,-122.5,117.5,50,-55,55,55,-120,-127.5,127.5,127.5,300,SBD,
DQ,Pamela Santos,F,1999,23,,,Raw,Open,67.8,69,-140,140,-150,140,-65,-65,-65,,-160,160,-167.5,160,,SBD,
1,Chloe Suchomel,F,2005,17,,,Raw,Sub-Juniors,61.78,63,102.5,-112.5,117.5,117.5,77.5,82.5,-85,82.5,-132.5,142.5,150,150,350,SBD,
2,Perla Banos Torres,F,2004,18,,,Raw,Sub-Juniors,58.38,63,100,107.5,112.5,112.5,45,50,52.5,52.5,100,105,112.5,112.5,277.5,SBD,
1,Dariana Villarreal,F,2004,18,,,Raw,Sub-Juniors,66.28,69,85,92.5,-97.5,92.5,52.5,-55,55,55,100,110,-115,110,257.5,SBD,
1,Santos Jimenez,M,1992,30,,,Raw,Open,72.88,74,210,220,-227.5,220,160,167.5,170,170,245,260,280,280,670,SBD,
2,Pierre Liciaga,M,1997,25,,,Raw,Open,73.56,74,-195,215,-227.5,215,-142.5,142.5,-150,142.5,245,255,-260,255,612.5,SBD,
3,Omar Josue Garcia Guevara,M,1997,25,,,Raw,Open,72.6,74,-212.5,-215,215,215,127.5,-135,-135,127.5,242.5,250,-265,250,592.5,SBD,
4,Tomas Jimenez,M,1985,37,,,Raw,Open,73.72,74,200,-210,-210,200,145,-147.5,-147.5,145,230,-240,-245,230,575,SBD,
5,Leo Matura,M,1990,32,,,Raw,Open,71.56,74,182.5,197.5,207.5,207.5,130,135,137.5,137.5,215,227.5,-247.5,227.5,572.5,SBD,
6,Francisco Adolfo Rodriguez,M,1990,32,,,Raw,Open,73.68,74,177.5,190,-195,190,120,122.5,-125,122.5,230,240,260,260,572.5,SBD,
7,Geovany Decene,M,1992,30,,,Raw,Open,73.82,74,190,-192.5,-192.5,190,135,140,-142.5,140,215,225,-227.5,225,555,SBD,
8,Jose Mercedes,M,1996,26,,,Raw,Open,72.66,74,165,175,180,180,115,-117.5,117.5,117.5,225,235,240,240,537.5,SBD,
9,Andrew Sardis,M,1991,31,,,Raw,Open,73.1,74,175,192.5,200,200,115,122.5,125,125,175,195,-200,195,520,SBD,
1,Scott Jennings,M,1995,27,,,Raw,Open,82.38,83,-247.5,247.5,-257.5,247.5,172.5,-185,-185,172.5,-302.5,302.5,312.5,312.5,732.5,SBD,
2,Ronald Medrano Williams,M,1992,30,,,Raw,Open,80.38,83,245,-260,-260,245,155,160,-167.5,160,287.5,300,-317.5,300,705,SBD,
3,Jonathan Losa,M,1982,40,,,Raw,Open,82.62,83,220,232.5,242.5,242.5,185,192.5,200,200,240,262.5,-282.5,262.5,705,SBD,
4,Diego Ramírez,M,1991,31,,,Raw,Open,82.46,83,215,225,230,230,150,155,-157.5,155,260,275,285,285,670,SBD,
5,Cristopher Gerardo Osorio Ariana,M,1993,29,,,Raw,Open,79.06,83,195,205,215,215,165,-175,175,175,230,240,250,250,640,SBD,
6,Quentin Chan,M,1995,27,,,Raw,Open,82.72,83,205,220,-230,220,135,145,150,150,240,-252.5,-257.5,240,610,SBD,
7,Elvis Espinal,M,1995,27,,,Raw,Open,80.58,83,192.5,202.5,-210,202.5,130,-132.5,-135,130,235,247.5,255,255,587.5,SBD,
8,David Miladeh,M,1993,29,,,Raw,Open,82.28,83,180,192.5,200,200,100,107.5,-110,107.5,210,225,240,240,547.5,SBD,
DQ,Bolivar Rovi,M,1996,26,,,Raw,Open,80.9,83,220,232.5,-242.5,232.5,127.5,-132.5,-132.5,127.5,-260,-260,-260,,,SBD,
1,Amber Milley,F,2001,21,,,Raw,Juniors,75.64,76,117.5,122.5,125,125,62.5,67.5,70,70,130,140,-145,140,335,SBD,
2,Anaris Diaz,F,1999,23,,,Raw,Juniors,75.92,76,100,110,117.5,117.5,45,50,55,55,117.5,127.5,-140,127.5,300,SBD,
1,Pamela Hodder,F,,,,,Raw,Masters 1,73.84,76,135,-137.5,,135,82.5,87.5,92.5,92.5,145,155,160,160,387.5,SBD,
1,April Hutchinson,F,1976,46,,,Raw,Masters 1,100.34,84+,170.5,-177.5,180,180,80,-85,-85,80,210,220,-225,220,480,SBD,
2,Nadine Louidor,F,1982,40,,,Raw,Masters 1,110.24,84+,172.5,180,182.5,182.5,80,87.5,95,95,190,200,-210,200,477.5,SBD,
1,Michal Harris,F,1970,52,,,Raw,Masters 2,83.1,84,90,102.5,105,105,45,52.5,-55,52.5,130,140,142.5,142.5,300,SBD,
1,Sami DePass,F,1997,25,,,Raw,Open,75.78,76,175,185.5,-190.5,185.5,92.5,97.5,-100,97.5,200,210,220.5,220.5,503.5,SBD,
2,Aliza Tessler,F,1994,28,,,Raw,Open,75.1,76,132.5,150,162.5,162.5,80,90,-97.5,90,165,182.5,200,200,452.5,SBD,
3,Aliah Vese,F,1985,37,,,Raw,Open,74.22,76,130,140,-147.5,140,77.5,-82.5,-87.5,77.5,170,180,-182.5,180,397.5,SBD,
4,Elba Sanchez,F,1995,27,,,Raw,Open,69.28,76,155,157.5,162.5,162.5,65,67.5,-70,67.5,152.5,-162.5,-162.5,152.5,382.5,SBD,
5,Narissa Sho,F,1992,30,,,Raw,Open,75,76,130,142.5,145,145,65,-75,-75,65,145,-155,155,155,365,SBD,
6,Taisha Ramos,F,1996,26,,,Raw,Open,75.28,76,95,100,105,105,70,77.5,-80,77.5,150,157.5,167.5,167.5,350,SBD,
7,Alejandra Rios,F,1987,35,,,Raw,Open,74.66,76,125,135,-145,135,52.5,60,-67.5,60,137.5,140,152.5,152.5,347.5,SBD,
1,Byron Vargas,M,2000,22,,,Raw,Juniors,82.24,83,202.5,215,222.5,222.5,142.5,147.5,152.5,152.5,250,265,-270,265,640,SBD,
2,Derek Demmans,M,2000,22,,,Raw,Juniors,80.54,83,217.5,230,235,235,140,147.5,-152.5,147.5,247.5,-260,-273.5,247.5,630,SBD,
3,Jose Pablo Hidalgo,M,2001,21,,,Raw,Juniors,80.52,83,190,205,-212.5,205,120,125,127.5,127.5,255,270,273,273,605.5,SBD,
4,Juan Garcia #24,M,2000,22,,,Raw,Juniors,80.88,83,205,215,225,225,125,132.5,-137.5,132.5,222.5,232.5,247.5,247.5,605,SBD,
5,Leonardo Mendoza,M,2000,22,,,Raw,Juniors,81.54,83,200,210,217.5,217.5,137.5,-142.5,-142.5,137.5,240,250,-260,250,605,SBD,
6,Javier Pagan,M,1999,23,,,Raw,Juniors,80.48,83,162.5,172.5,-180,172.5,105,112.5,-117.5,112.5,212.5,222.5,227.5,227.5,512.5,SBD,
7,Issaquiel Cosme,M,2001,21,,,Raw,Juniors,78.58,83,122.5,135,142.5,142.5,92.5,95,-97.5,95,155,170,-182.5,170,407.5,SBD,
1,Jonathan Rivera,M,1999,23,,,Raw,Juniors,85.72,93,207.5,-220,-225,207.5,160,172.5,181.5,181.5,-212.5,227.5,250,250,639,SBD,
2,Carlos Medina,M,2000,22,,,Raw,Juniors,91.3,93,215,220,-230,220,145,-150,150,150,245,255,-270,255,625,SBD,
3,Mario Elizondo,M,2002,20,,,Raw,Juniors,92.06,93,190,-205,-205,190,110,115,-122.5,115,215,225,232.5,232.5,537.5,SBD,
1,Christopher Cubero,M,1979,43,,,Raw,Masters 1,82.76,83,190,207.5,212.5,212.5,132.5,140,145,145,235,247.5,255,255,612.5,SBD,
2,Patrick Rodrigue,M,1978,44,,,Raw,Masters 1,81.7,83,200,-212.5,-212.5,200,115,120,-125,120,232.5,245,-255,245,565,SBD,
3,Alejandro Peralta,M,1980,42,,,Raw,Masters 1,80,83,187.5,192.5,200,200,-115,115,-125,115,225,232.5,-237.5,232.5,547.5,SBD,
1,Rony Robinson,M,1978,44,,,Raw,Masters 1,90.38,93,215,235,245,245,145,150,155,155,245,261,-265,261,661,SBD,
2,Jensen Monterrey,M,1973,49,,,Raw,Masters 1,89.16,93,165,182.5,-202.5,182.5,115,122.5,-127.5,122.5,210,225,-232.5,225,530,SBD,
3,Giovanni Bressanutti,M,1980,42,,,Raw,Masters 1,88.12,93,135,145,147.5,147.5,75,80,82.5,82.5,175,185,187.5,187.5,417.5,SBD,
1,Jose Garcia #29,M,1969,53,,,Raw,Masters 2,81.12,83,230,240,245,245,135,-145,147.5,147.5,245,255,257.5,257.5,650,SBD,
2,Ken Bray,M,1969,53,,,Raw,Masters 2,78.82,83,207.5,-227.5,-227.5,207.5,130,132.5,135,135,-272.5,272.5,280.5,280.5,623,SBD,
1,Shaun Eisenhauer,M,1958,64,,,Raw,Masters 3,81.72,83,137.5,145,152.5,152.5,97.5,102.5,107.5,107.5,162.5,175,185,185,445,SBD,
1,Edward Regua,M,1951,71,,,Raw,Masters 4,81.68,83,137.5,150,160,160,95,100,105,105,175,185,192.5,192.5,457.5,SBD,
1,John LaFlamme,M,1950,72,,,Raw,Masters 4,86.28,93,180,193,198,198,92.5,100,107.5,107.5,210,227.5,-230,227.5,533,SBD,
1,Jevon DaCosta,M,1992,30,,,Raw,Open,91.32,93,-250,250,265,265,185,-187.5,197.5,197.5,-300,300,315,315,777.5,SBD,
2,Abraham Miguel,M,1993,29,,,Raw,Open,92.64,93,247.5,262.5,-270,262.5,180,187.5,190,190,265,277.5,-292.5,277.5,730,SBD,
3,Khalid Usher,M,1997,25,,,Raw,Open,92.7,93,260,-277.5,-277.5,260,142.5,150,-155,150,280,-300,-300,280,690,SBD,
4,Tyler Wilburn,M,1993,29,,,Raw,Open,92.12,93,210,227.5,232.5,232.5,150,157.5,165,165,-225,232.5,245,245,642.5,SBD,
5,Jose Diaz #12,M,1997,25,,,Raw,Open,86.74,93,205,215,-220,215,140,142.5,-145,142.5,265,277.5,280,280,637.5,SBD,
6,Giancarlo Avila,M,1995,27,,,Raw,Open,90.26,93,220,230,235,235,132.5,-140,-140,132.5,250,-252.5,265,265,632.5,SBD,
7,Jose Ortega,M,1992,30,,,Raw,Open,89.32,93,192.5,200,205,205,135,-142.5,142.5,142.5,225,-235,-235,225,572.5,SBD,
1,Robert Guillen,M,1985,37,,,Raw,Special Olympics,79.6,83,70,72.5,75,75,50,60,65,65,100,120,-130,120,260,SBD,
1,Exsaul Hernandez,M,2000,22,,,Raw,Special Olympics,85.38,93,95,125,135,135,75,-95,-95,75,105,125,155,155,365,SBD,
1,Mario Luis Fanini,M,2005,17,,,Raw,Sub-Juniors,82.18,83,155,167.5,175,175,117.5,122.5,-127.5,122.5,180,190,202.5,202.5,500,SBD,
2,Jonathan Barajas,M,2004,18,,,Raw,Sub-Juniors,82.62,83,155,170,172.5,172.5,115,120,-127.5,120,170,185,200,200,492.5,SBD,
3,Carlos Samaniego Jahn,M,2004,18,,,Raw,Sub-Juniors,80.24,83,110,125,-140,125,65,75,85,85,160,162.5,185,185,395,SBD,
1,Breana Andrews,F,1999,23,,,Raw,Juniors,100.5,84+,167.5,177.5,180,180,65,67.5,70,70,180,-192.5,-195,180,430,SBD,
1,Marie Wagner,F,1982,40,,,Raw,Open,83.58,84,173,-183,183,183,90,95,97.5,97.5,182.5,192.5,-200.5,192.5,473,SBD,
2,Cassie Bordes,F,1987,35,,,Raw,Open,83.36,84,152.5,160,170,170,75,80,82.5,82.5,175,185,195,195,447.5,SBD,
3,Jazmin Ramirez,F,1998,24,,,Raw,Open,83.26,84,157.5,165,170,170,65,70,77.5,77.5,162.5,172.5,180,180,427.5,SBD,
4,Raquel de Los Angeles Gonzalez Zeledon,F,1997,25,,,Raw,Open,80.44,84,155,165,-170,165,70,82.5,87.5,87.5,155,165,172.5,172.5,425,SBD,
5,Laura Estrella,F,1993,29,,,Raw,Open,83.06,84,152.5,160,-162.5,160,82.5,87.5,90,90,152.5,162.5,-172.5,162.5,412.5,SBD,
6,Kayla Boisvert,F,1998,24,,,Raw,Open,77.88,84,130,140,-142.5,140,72.5,75,77.5,77.5,167.5,180,185,185,402.5,SBD,
1,Maytia Millan,F,1989,33,,,Raw,Open,94.56,84+,180,195,-197.5,195,100,107.5,113,113,180,195,-197.5,195,503,SBD,
2,Desiree Wilkins,F,1993,29,,,Raw,Open,87.14,84+,175,-202.5,-202.5,175,75,85,-92.5,85,185,202.5,-227.5,202.5,462.5,SBD,
3,Natasha Ching,F,1987,35,,,Raw,Open,105.22,84+,162.5,167.5,172.5,172.5,100,102.5,-105,102.5,170,182.5,-197.5,182.5,457.5,SBD,
4,Ruth Yarali Gutierrez Lopez,F,1987,35,,,Raw,Open,93.24,84+,155,165,172.5,172.5,70,75,-82.5,75,160,170,175,175,422.5,SBD,
5,Stephanie Dilone,F,1988,34,,,Raw,Open,91.02,84+,147.5,-152.5,152.5,152.5,72.5,75,-80,75,152.5,167.5,182.5,182.5,410,SBD,
1,Lucas Wiseman,M,1999,23,,,Raw,Juniors,99.32,105,255,265,275,275,145,150,155,155,280,292.5,-310,292.5,722.5,SBD,
2,Nathan Dunn,M,1999,23,,,Raw,Juniors,104.14,105,230,242.5,250,250,150,157.5,162.5,162.5,220,-237.5,240,240,652.5,SBD,
3,William Murillo,M,2000,22,,,Raw,Juniors,102.06,105,-245,245,252.5,252.5,117.5,125,130,130,240,255,-270,255,637.5,SBD,
DQ,Philippe Saravia,M,2000,22,,,Raw,Juniors,99.9,105,,,,,,,,,,,,,,SBD,
1,Abram Espinoza,M,2003,19,,,Raw,Juniors,121.9,120+,230,250,-272.5,250,120,132.5,-142.5,132.5,220,235,-242.5,235,617.5,SBD,
2,Christian Matthews,M,2000,22,,,Raw,Juniors,126.94,120+,165,170,-182.5,170,92.5,102.5,-107.5,102.5,182.5,195,210,210,482.5,SBD,
1,Didimo Barrios,M,1978,44,,,Raw,Masters 1,98.12,105,255,265,270,270,115,125,135,135,265,285,300.5,300.5,705.5,SBD,
2,Jose-Alfredo Hernandez,M,1978,44,,,Raw,Masters 1,103.82,105,230,250,-255,250,135,-147.5,-147.5,135,210,-230,,210,595,SBD,
3,Nelson Aguilar,M,1974,48,,,Raw,Masters 1,100.94,105,150,-160,170,170,110,120,135,135,150,165,175,175,480,SBD,
4,Emilio Morera,M,1981,41,,,Raw,Masters 1,103.02,105,140,150,-160,150,80,85,90,90,140,155,165,165,405,SBD,
1,Robert Williams,M,1976,46,,,Raw,Masters 1,117.86,120,215,230,235,235,165,182.5,-185,182.5,250,272.5,-275,272.5,690,SBD,
2,Jonathan Macias,M,1982,40,,,Raw,Masters 1,109.94,120,230,-240,240,240,140,150,-155,150,235,245,-250,245,635,SBD,
3,Jonathan Jurewicz,M,1980,42,,,Raw,Masters 1,113.72,120,140,155,160,160,72.5,75,-77.5,75,150,165,175,175,410,SBD,
1,Michael Jean Sr,M,1979,43,,,Raw,Masters 1,181.82,120+,230,245,255.5,255.5,180,190,-200.5,190,250,-260,-260,250,695.5,SBD,
1,Kirk Wiley,M,1965,57,,,Raw,Masters 2,104.04,105,217.5,227.5,237.5,237.5,105,-125,-125,105,202.5,220,-225,220,562.5,SBD,
1,Nick Doelman,M,1972,50,,,Raw,Masters 2,118.58,120,-187.5,-187.5,187.5,187.5,120,130,137.5,137.5,202.5,212.5,220,220,545,SBD,
2,Keith Carlascio,M,1969,53,,,Raw,Masters 2,112.66,120,157.5,172.5,180,180,100,112.5,117.5,117.5,180,192.5,205,205,502.5,SBD,
3,Jaime Arturo Avila,M,1971,51,,,Raw,Masters 2,107.24,120,165,175,185,185,110,-120,120,120,165,185,-202.5,185,490,SBD,
1,Hugo Velásquez,M,1959,63,,,Raw,Masters 3,123.7,120+,105,120,130,130,117.5,125,132.5,132.5,110,125,130,130,392.5,SBD,
1,Bruce Barry,M,1952,70,,,Raw,Masters 4,101.2,105,190,-215,-215,190,75,-77.5,85,85,190,202.5,,202.5,477.5,SBD,
1,LS McClain,M,1978,44,,,Raw,Open,104.5,105,297.5,310,-315,310,207.5,217.5,-225,217.5,295,305,320,320,847.5,SBD,
2,Esteban Rodriguez,M,1993,29,,,Raw,Open,103.22,105,285,300,-307.5,300,170,180,-185,180,285,-300,-302.5,285,765,SBD,
3,Moises Guerrero Calderon,M,1989,33,,,Raw,Open,101.6,105,250,260,265,265,160,167.5,-170,167.5,280,-295,-300,280,712.5,SBD,
4,Darrin Perez,M,1985,37,,,Raw,Open,101.8,105,215,230,245,245,150,-165,-165,150,215,245,-255,245,640,SBD,
5,Diego Cuarezma Zapata,M,1995,27,,,Raw,Open,101.8,105,190,205,-220,205,115,125,-135,125,190,210,225,225,555,SBD,
1,Luciano Delorenzi,M,1991,31,,,Raw,Open,120,120,285,302.5,-310,302.5,187.5,200,207.5,207.5,290,310,322.5,322.5,832.5,SBD,
2,Lester Horacio Cuadra Vargas,M,1980,42,,,Raw,Open,115.94,120,220,255,270,270,140,155,170,170,230,260,280,280,720,SBD,
3,Luis Adrian Rivera,M,1998,24,,,Raw,Open,117.68,120,227.5,237.5,250,250,130,140,-150,140,240,250,-260,250,640,SBD,
4,Jordan McErlean,M,1992,30,,,Raw,Open,118.36,120,-170,182.5,205,205,-132.5,-140,140,140,245,260,-275,260,605,SBD,
1,Adrian Arias Blanco,M,1990,32,,,Raw,Open,133.66,120+,295,-310,-310,295,175,180,-185,180,270,-285,-290,270,745,SBD,
1,Jorge López,M,1997,25,,,Raw,Special Olympics,102.24,105,150,160,170,170,95,102.5,107.5,107.5,160,170,182.5,182.5,460,SBD,
1,Alberto Willis,M,1999,23,,,Raw,Special Olympics,155.16,120+,75,85,-95,85,55,60,65,65,75,105,125,125,275,SBD,
1,Aldo Valverde,M,2004,18,,,Raw,Sub-Juniors,104.46,105,210,220,-227.5,220,120,-127.5,-127.5,120,235,245,-250,245,585,SBD,
1,Malinallitzin Porras,F,2002,20,,,Single-ply,Juniors,75.16,76,187.5,196,201,201,90,95,100,100,175,185.5,-192,185.5,486.5,SBD,
1,Xuelian Gan,F,1979,43,,,Single-ply,Masters 1,58.6,63,-115,125,130,130,40,45,50,50,115,120,125,125,305,SBD,
1,Socorro Perez,F,1959,63,,,Single-ply,Masters 3,60.78,63,90,95,100,100,85,-90,90,90,110,117.5,125,125,315,SBD,
1,Jose Barquero Maria,F,1997,25,,,Single-ply,Open,53.14,57,132.5,140,145,145,95,-100,-100,95,132.5,140,145,145,385,SBD,
2,Jessica Reyes,F,1983,39,,,Single-ply,Open,55.34,57,125,130,135,135,97.5,-100,-100,97.5,130,137.5,145,145,377.5,SBD,
3,Janel Brown,F,1973,49,,,Single-ply,Open,56.28,57,-145,145,-160,145,70,75,-80,75,140,155,-167.5,155,375,SBD,
1,Laura Rojas Gonzalez,F,1998,24,,,Single-ply,Open,57.38,63,115,125,-140,125,65,75,-82.5,75,110,125,-130,125,325,SBD,
2,Monica Bare Diaz,F,1984,38,,,Single-ply,Open,57.94,63,80,-90,90,90,40,-45,-45,40,95,100,-105,100,230,SBD,
1,Ericka Liliana Dávila Cárcamo,F,1996,26,,,Single-ply,Open,68.6,69,180,190,-200,190,105,112.5,115,115,180,190,-200,190,495,SBD,
1,Joan Báez,F,1986,36,,,Single-ply,Open,103.18,84+,187.5,197.5,-207.5,197.5,142.5,147.5,-152.5,147.5,145,155,165,165,510,SBD,
1,Aeryn Anderson,F,2004,18,,,Single-ply,Sub-Juniors,59.02,63,122.5,137.5,-145,137.5,-65,65,-72.5,65,122.5,137.5,-142.5,137.5,340,SBD,
1,Julio Alfredo Fernández Rodríguez,M,1999,23,,,Single-ply,Juniors,79.38,83,-210,210,250,250,105,120,-125,120,190,210,-215,210,580,SBD,
1,Doel Cotte,M,1981,41,,,Single-ply,Masters 1,72.52,74,192.5,-205,-205,192.5,-140,140,-142.5,140,190,200,-212.5,200,532.5,SBD,
DQ,Eduard John Flores Santiago,M,1970,52,,,Single-ply,Masters 2,69.98,74,155,165,175,175,-115,-120,-120,,172.5,182.5,190,190,,SBD,
1,Feliberto Quiroz,M,1967,55,,,Single-ply,Masters 2,79.12,83,-180,180,-205,180,105,115,125,125,180,200,-230,200,505,SBD,
1,Michael Rodriguez #13,M,1961,61,,,Single-ply,Masters 3,72.76,74,200,215,220,220,140,-150,-150,140,202.5,215,-222.5,215,575,SBD,
2,Ronald Walker,M,1959,63,,,Single-ply,Masters 3,72.92,74,137.5,145,150,150,115,-120,-120,115,220,-232.5,-240.5,220,485,SBD,
1,Javier Batista,M,1991,31,,,Single-ply,Open,71.66,74,190,197.5,205,205,-145,145,150,150,210,-220,-225,210,565,SBD,
1,Zachary Jones #1,M,1990,32,,,Single-ply,Open,82.7,83,230,242.5,250,250,192.5,-200,200,200,235,252.5,-257.5,252.5,702.5,SBD,
2,Cristopher Gerardo Osorio Ariana,M,1993,29,,,Single-ply,Open,79.82,83,215,235,245,245,185,195,-205,195,230,240,-260,240,680,SBD,
3,Henry Menendez,M,1985,37,,,Single-ply,Open,82,83,235,-255,-255,235,-150,150,155,155,-235,235,-255,235,625,SBD,
DQ,Marco Reyes #2,M,1980,42,,,Single-ply,Masters 1,87.9,93,235,240,-245,240,-140,-140,-140,,190,200,-210,200,,SBD,
1,Barron Henderson,M,1976,46,,,Single-ply,Masters 1,118.96,120,-300,300,340,340,200,212.5,-220,212.5,280,295,-310,295,847.5,SBD,
2,Marco Porras,M,1982,40,,,Single-ply,Masters 1,113.66,120,260,280,300,300,205,212.5,217.5,217.5,230,250,270,270,787.5,SBD,
1,Alex Alvarado,M,1974,48,,,Single-ply,Masters 1,123.2,120+,277.5,287.5,-300,287.5,190,-197.5,197.5,197.5,217.5,230,240,240,725,SBD,
1,Thomas Cencich,M,1960,62,,,Single-ply,Masters 3,91.64,93,150,185,-205,185,190,192.5,195,195,175,190,-200,190,570,SBD,
1,Hugo Velásquez,M,1959,63,,,Single-ply,Masters 3,125.06,120+,125,140,-142.5,140,150,-165,-165,150,120,-130,130,130,420,SBD,
1,Bruce Barry,M,1952,70,,,Single-ply,Masters 4,100.6,105,-220,220,236,236,105,-115,117.5,117.5,160,182.5,200,200,553.5,SBD,
1,Rivera Andres Soto,M,1998,24,,,Single-ply,Open,92.86,93,265,-275,-275,265,175,180,185,185,250,260,275,275,725,SBD,
2,Tony McInerney,M,1972,50,,,Single-ply,Open,91.44,93,235,245,-250,245,135,-140,140,140,-260,-260,260,260,645,SBD,
3,Leonardo Quiros Lepiz,M,1984,38,,,Single-ply,Open,89.72,93,225,235,-245,235,165,-170,-170,165,200,220,-240,220,620,SBD,
4,Jared Weers,M,1987,35,,,Single-ply,Open,92.92,93,212.5,222.5,-227.5,222.5,125,130,-132.5,130,210,222.5,-227.5,222.5,575,SBD,
1,Nelson Martínez,M,1986,36,,,Single-ply,Open,103.96,105,325,-350,-350,325,-255,260,272.5,272.5,275,-290,-290,275,872.5,SBD,
2,Diego Rojas Ulate,M,1999,23,,,Single-ply,Open,99.5,105,230,255,265,265,-150,-150,150,150,240,270,-290,270,685,SBD,
3,Jorge Gonzales Acuna,M,1983,39,,,Single-ply,Open,104.46,105,225,235,-240,235,145,150,-160,150,235,260,-272.5,260,645,SBD,
1,Michael Fernandez Barrantes,M,1982,40,,,Single-ply,Open,119.8,120,335,-355,-355,335,235,-255,-255,235,250,275,-300,275,845,SBD,
2,Mark Leebrick,M,1994,28,,,Single-ply,Open,111.4,120,295,-320,-320,295,200,212.5,217.5,217.5,225,-242.5,242.5,242.5,755,SBD,
3,Luis Adrian Rivera,M,1998,24,,,Single-ply,Open,117.56,120,260,270,280,280,-160,160,-172.5,160,250,260,265,265,705,SBD,
1,Carlos Manuel Campos Murillo,M,1979,43,,,Single-ply,Open,143.16,120+,375,-400,-427.5,375,297.5,-350.5,-365,297.5,340,-365,-365,340,1012.5,SBD,
2,Luis Mejias,M,1995,27,,,Single-ply,Open,133.86,120+,280,-300,-300,280,175,-190,-190,175,230,-250,-250,230,685,SBD,
